module bitbucket.org/snakes

go 1.13

require (
	fyne.io/fyne v1.3.1
	github.com/cosiner/argv v0.1.0 // indirect
	github.com/go-delve/delve v1.4.1 // indirect
	github.com/golang/protobuf v1.4.2 // indirect
	github.com/gotk3/gotk3 v0.4.0
	github.com/mattn/go-colorable v0.1.7 // indirect
	github.com/mattn/go-runewidth v0.0.9 // indirect
	github.com/peterh/liner v1.2.0 // indirect
	github.com/spf13/cobra v1.0.0 // indirect
	github.com/spf13/pflag v1.0.5 // indirect
	go.starlark.net v0.0.0-20200619143648-50ca820fafb9 // indirect
	golang.org/x/arch v0.0.0-20200511175325-f7c78586839d // indirect
	golang.org/x/image v0.0.0-20200618115811-c13761719519
	golang.org/x/sys v0.0.0-20200625212154-ddb9806d33ae // indirect
	gopkg.in/yaml.v2 v2.3.0 // indirect
)
